6 Reading and writing data files – The RBioc Book
…
library(readxl)

Now, you can read an Excel file using the read_excel() function from the readxl package. We don’t have an excel file available, so let’s download one from the internet. Here’s an example:

download.file('https://www.w3resource.com/python-exercises/pandas/excel/SaleData.xlsx', 'SaleData.xlsx')

Now, you can read the Excel file into R using the read_excel() function:

df_excel <- read_excel("SaleData.xlsx")

You can check the structure of the data frame df_excel to verify that the data was read correctly:

df_excel

# A tibble: 45 × 8
   OrderDate           Region  Manager SalesMan  Item  Units Unit_price Sale_amt
   <dttm>              <chr>   <chr>   <chr>     <chr> <dbl>      <dbl>    <dbl>
 1 2018-01-06 00:00:00 East    Martha  Alexander Tele…    95       1198   113810
 2 2018-01-23 00:00:00 Central Hermann Shelli    Home…    50        500    25000
 3 2018-02-09 00:00:00 Central Hermann Luis      Tele…    36       1198    43128
 4 2018-02-26 00:00:00 Central Timothy David     Cell…    27        225     6075
 5 2018-03-15 00:00:00 West    Timothy Stephen   Tele…    56       1198    67088
 6 2018-04-01 00:00:00 East    Martha  Alexander Home…    60        500    30000
 7 2018-04-18 00:00:00 Central Martha  Steven    Tele…    75       1198    89850
 8 2018-05-05 00:00:00 Central Hermann Luis      Tele…    90       1198   107820
 9 2018-05-22 00:00:00 West    Douglas Michael   Tele…    32       1198    38336
10 2018-06-08 00:00:00 East    Martha  Alexander Home…    60        500    30000
# ℹ 35 more rows
…
